…
## Part 2: Learning function from Tidyverse

- Function `select()` from package [dplyr](https://dplyr.tidyverse.org/articles/dplyr.html#select-columns-with-select)). It is used for selecting columns
> TopCompSciBooks %>% select(Book_title, Rating)

#### Result:
```
# A tibble: 271 x 2
   Book_title                                                                             Rating
   <chr>                                                                                   <dbl>
 1 The Elements of Style                                                                    4.17
 2 The Information: A History, a Theory, a Flood                                            4.01
 3 Responsive Web Design Overview For Beginners                                             3.33
 4 Ghost in the Wires: My Adventures as the World's Most Wanted Hacker                      3.97
 5 How Google Works                                                                         4.06
 6 The Meme Machine                                                                         3.84
 7 Start with Why: How Great Leaders Inspire Everyone to Take Action                        4.09
 8 Algorithms to Live By: The Computer Science of Human Decisions                           4.15
 9 Weapons of Math Destruction: How Big Data Increases Inequality and Threatens Democracy   3.87
10 ZX Spectrum Games Code Club: Twenty fun games to code and learn                          4.62
# ... with 261 more rows
```
…
